Specific flows for each statistical method • mason
…
data.frame(state.x77, state.region) %>% 
    design('gee') %>% 
    add_settings(cluster.id = 'state.region') %>% 
    add_variables('yvars', c('Income', 'Frost')) %>% 
    add_variables('xvars', c('Population', 'Murder')) %>% 
    add_variables('covariates', c('Life.Exp', 'Area')) %>% 
    add_variables('interaction', 'Area') %>% 
    construct() %>% 
    add_variables('xvars', c('Illiteracy')) %>%
    construct() %>%
    scrub()
#> Loading required namespace: geepack
#> xvars already exists in the specs, but will be replaced.
#> # A tibble: 30 x 12
#>    Yterms     Xterms         term      estimate    std.error   statistic
#>     <chr>      <chr>        <chr>         <dbl>        <dbl>       <dbl>
#>  1  Frost     Murder  (Intercept)  1.425879e+03 4.664546e+02  9.34429563
#>  2  Frost     Murder      <-Xterm -1.301990e+01 1.900418e+00 46.93720171
#>  3  Frost     Murder     Life.Exp -1.743501e+01 6.506417e+00  7.18059704
#>  4  Frost     Murder         Area  1.836322e-04 3.072173e-04  0.35727813
#>  5  Frost     Murder <-Xterm:Area -4.352580e-06 2.748875e-05  0.02507169
#>  6  Frost Population  (Intercept) -7.260855e+02 3.995192e+02  3.30293661
#>  7  Frost Population      <-Xterm  2.136489e-04 1.705346e-03  0.01569553
#>  8  Frost Population     Life.Exp  1.171606e+01 5.661719e+00  4.28219507
#>  9  Frost Population         Area  1.493809e-04 4.707465e-05 10.06969109
#> 10  Frost Population <-Xterm:Area -3.674397e-08 7.575809e-09 23.52415329
#> # ... with 20 more rows, and 6 more variables: p.value <dbl>,
#> #   conf.low <dbl>, conf.high <dbl>, sample.total <int>, sample.max <int>,
#> #   sample.min <int>
…
